{
  "result": {
    "item": "lucraftcore:dust_palladium"
  },
  "ingredients": [
    {
      "item": "lucraftcore:hammer",
      "data": 32767
    },
    {
      "item": "#INGOTPALLADIUM"
    }
  ],
  "conditions": [
    {
      "item": "lucraftcore:dust_palladium",
      "type": "minecraft:item_exists"
    },
    {
      "item": "lucraftcore:hammer",
      "type": "minecraft:item_exists"
    }
  ],
  "type": "forge:ore_shapeless",
  "group": "lucraftcore:ingot_to_dust"
}