{
  "result": {
    "item": "lucraftcore:tri_polymer_brown"
  },
  "ingredients": [
    {
      "item": "#DYEBROWN"
    },
    {
      "item": "#PLATEIRON"
    },
    {
      "item": "minecraft:leather"
    }
  ],
  "conditions": [
    {
      "item": "lucraftcore:tri_polymer_brown",
      "type": "minecraft:item_exists"
    },
    {
      "item": "minecraft:leather",
      "type": "minecraft:item_exists"
    }
  ],
  "type": "forge:ore_shapeless",
  "group": "lucraftcore:tri_polymer"
}